\relax 
\providecommand{\transparent@use}[1]{}
\providecommand\hyper@newdestlabel[2]{}
\@writefile{toc}{\defcounter {refsection}{0}\relax }\@writefile{toc}{\contentsline {section}{\numberline {4}Grundlagen des Raytracings}{10}{section.4}\protected@file@percent }
\newlabel{formeln}{{4}{10}{Grundlagen des Raytracings}{section.4}{}}
\@writefile{toc}{\defcounter {refsection}{0}\relax }\@writefile{toc}{\contentsline {subsection}{\numberline {4.1}Strahlverfolgung}{10}{subsection.4.1}\protected@file@percent }
\@writefile{lof}{\defcounter {refsection}{0}\relax }\@writefile{lof}{\contentsline {figure}{\numberline {10}{\ignorespaces Strahlverfolgung im Prototyp\relax }}{10}{figure.caption.11}\protected@file@percent }
\newlabel{b-demo-strahlverfolgung}{{10}{10}{Strahlverfolgung im Prototyp\relax }{figure.caption.11}{}}
\@writefile{lof}{\defcounter {refsection}{0}\relax }\@writefile{lof}{\contentsline {figure}{\numberline {11}{\ignorespaces Kamera mit Bildschirm im dreidimensionalen Raum \cite {nvidia}\relax }}{10}{figure.caption.12}\protected@file@percent }
\newlabel{b-3d-screen}{{11}{10}{Kamera mit Bildschirm im dreidimensionalen Raum \cite {nvidia}\relax }{figure.caption.12}{}}
\@writefile{toc}{\defcounter {refsection}{0}\relax }\@writefile{toc}{\contentsline {subsubsection}{\numberline {4.1.1}Reflektion}{11}{subsubsection.4.1.1}\protected@file@percent }
\newlabel{formel_refl}{{1}{11}{Reflektion}{equation.4.1}{}}
\@writefile{lof}{\defcounter {refsection}{0}\relax }\@writefile{lof}{\contentsline {figure}{\numberline {12}{\ignorespaces Reflektion des Vektors $\vec  {v}$\relax }}{11}{figure.caption.13}\protected@file@percent }
\newlabel{b-expl_refl}{{12}{11}{Reflektion des Vektors $\vec {v}$\relax }{figure.caption.13}{}}
\@writefile{lof}{\defcounter {refsection}{0}\relax }\@writefile{lof}{\contentsline {figure}{\numberline {13}{\ignorespaces Darstellung farbiger Spiegel im 3D-Teil der Anwendung\relax }}{11}{figure.caption.14}\protected@file@percent }
\newlabel{b-anwendung-3d-refl}{{13}{11}{Darstellung farbiger Spiegel im 3D-Teil der Anwendung\relax }{figure.caption.14}{}}
\@writefile{toc}{\defcounter {refsection}{0}\relax }\@writefile{toc}{\contentsline {subsubsection}{\numberline {4.1.2}Refraktion}{12}{subsubsection.4.1.2}\protected@file@percent }
\@writefile{lof}{\defcounter {refsection}{0}\relax }\@writefile{lof}{\contentsline {figure}{\numberline {14}{\ignorespaces Brechung des Strahls\relax }}{12}{figure.caption.15}\protected@file@percent }
\newlabel{b-expl_refr}{{14}{12}{Brechung des Strahls\relax }{figure.caption.15}{}}
\@writefile{lof}{\defcounter {refsection}{0}\relax }\@writefile{lof}{\contentsline {figure}{\numberline {15}{\ignorespaces Brechung in der Draufsicht\relax }}{12}{figure.caption.16}\protected@file@percent }
\newlabel{refr_2d}{{15}{12}{Brechung in der Draufsicht\relax }{figure.caption.16}{}}
\@writefile{toc}{\defcounter {refsection}{0}\relax }\@writefile{toc}{\contentsline {subsection}{\numberline {4.2}Schnittpunktberechnung}{13}{subsection.4.2}\protected@file@percent }
\@writefile{lof}{\defcounter {refsection}{0}\relax }\@writefile{lof}{\contentsline {figure}{\numberline {16}{\ignorespaces Alle Schnittpunkte des Strahls und der Objekte\relax }}{13}{figure.caption.17}\protected@file@percent }
\newlabel{b-all_hits}{{16}{13}{Alle Schnittpunkte des Strahls und der Objekte\relax }{figure.caption.17}{}}
\@writefile{toc}{\defcounter {refsection}{0}\relax }\@writefile{toc}{\contentsline {subsubsection}{\numberline {4.2.1}2D-Schnittpunkt}{13}{subsubsection.4.2.1}\protected@file@percent }
\@writefile{lof}{\defcounter {refsection}{0}\relax }\@writefile{lof}{\contentsline {figure}{\numberline {17}{\ignorespaces Schnittpunkt von Strahl und Objektkante\relax }}{13}{figure.caption.18}\protected@file@percent }
\newlabel{b-expl_2d_intersect}{{17}{13}{Schnittpunkt von Strahl und Objektkante\relax }{figure.caption.18}{}}
\@writefile{toc}{\defcounter {refsection}{0}\relax }\@writefile{toc}{\contentsline {subsubsection}{\numberline {4.2.2}3D-Schnittpunkt}{14}{subsubsection.4.2.2}\protected@file@percent }
\@writefile{lof}{\defcounter {refsection}{0}\relax }\@writefile{lof}{\contentsline {figure}{\numberline {18}{\ignorespaces Zwei Strahlen, welche die Ebene schneiden, aber nur S schneidet das Polygon\relax }}{14}{figure.caption.19}\protected@file@percent }
\newlabel{b-expl_hit}{{18}{14}{Zwei Strahlen, welche die Ebene schneiden, aber nur S schneidet das Polygon\relax }{figure.caption.19}{}}
\@writefile{lof}{\defcounter {refsection}{0}\relax }\@writefile{lof}{\contentsline {figure}{\numberline {19}{\ignorespaces Transformation ins Zweidimensionale\relax }}{15}{figure.caption.20}\protected@file@percent }
\newlabel{b-expl_transform}{{19}{15}{Transformation ins Zweidimensionale\relax }{figure.caption.20}{}}
\@writefile{lof}{\defcounter {refsection}{0}\relax }\@writefile{lof}{\contentsline {figure}{\numberline {20}{\ignorespaces Winkel zwischen Vektoren zu benachbarten Ecken des Objektes\relax }}{16}{figure.caption.21}\protected@file@percent }
\newlabel{b-expl_one_angle}{{20}{16}{Winkel zwischen Vektoren zu benachbarten Ecken des Objektes\relax }{figure.caption.21}{}}
\@writefile{lof}{\defcounter {refsection}{0}\relax }\@writefile{lof}{\contentsline {figure}{\numberline {21}{\ignorespaces Winkel (gerundet) innerhalb eines Polygons\relax }}{16}{figure.caption.22}\protected@file@percent }
\newlabel{b-expl_angle}{{21}{16}{Winkel (gerundet) innerhalb eines Polygons\relax }{figure.caption.22}{}}
\@writefile{toc}{\defcounter {refsection}{0}\relax }\@writefile{toc}{\contentsline {subsection}{\numberline {4.3}Phong-Beleuchtungsmodell}{17}{subsection.4.3}\protected@file@percent }
\@writefile{lof}{\defcounter {refsection}{0}\relax }\@writefile{lof}{\contentsline {figure}{\numberline {22}{\ignorespaces Einfluss der Lichtquellenfarbe auf das Objekt (Plastik)\relax }}{17}{figure.caption.23}\protected@file@percent }
\newlabel{b-demo-phong-3D}{{22}{17}{Einfluss der Lichtquellenfarbe auf das Objekt (Plastik)\relax }{figure.caption.23}{}}
\@writefile{lof}{\defcounter {refsection}{0}\relax }\@writefile{lof}{\contentsline {figure}{\numberline {23}{\ignorespaces  links: Blockierter Schattenfühler zeigt, dass das rote Objekt zwischen der Lichtquelle und dem Punkt auf dem Objekt liegt. rechts: auf dem blauen 3D-Objekt ist deutlich der vom roten 3D-Objekt geworfene Schatten zu sehen.\relax }}{17}{figure.caption.24}\protected@file@percent }
\newlabel{b-demo-phong-shadow-ray}{{23}{17}{\\links: Blockierter Schattenfühler zeigt, dass das rote Objekt zwischen der Lichtquelle und dem Punkt auf dem Objekt liegt.\\rechts: auf dem blauen 3D-Objekt ist deutlich der vom roten 3D-Objekt geworfene Schatten zu sehen.\relax }{figure.caption.24}{}}
\@writefile{toc}{\defcounter {refsection}{0}\relax }\@writefile{toc}{\contentsline {subsubsection}{\numberline {4.3.1}vollständige Formel}{18}{subsubsection.4.3.1}\protected@file@percent }
\newlabel{formel_amb}{{25}{18}{vollständige Formel}{equation.4.25}{}}
\newlabel{formel_diff}{{26}{18}{vollständige Formel}{equation.4.26}{}}
\newlabel{formel_spec}{{27}{18}{vollständige Formel}{equation.4.27}{}}
\newlabel{formel_phong}{{29}{18}{vollständige Formel}{equation.4.29}{}}
\@writefile{lof}{\defcounter {refsection}{0}\relax }\@writefile{lof}{\contentsline {figure}{\numberline {24}{\ignorespaces Winkel für die Berechnung nach dem Phong-Beleuchtungsmodell\relax }}{18}{figure.caption.25}\protected@file@percent }
\newlabel{b-phong-angles}{{24}{18}{Winkel für die Berechnung nach dem Phong-Beleuchtungsmodell\relax }{figure.caption.25}{}}
\@writefile{toc}{\defcounter {refsection}{0}\relax }\@writefile{toc}{\contentsline {subsubsection}{\numberline {4.3.2}ambienter Anteil}{19}{subsubsection.4.3.2}\protected@file@percent }
\@writefile{toc}{\defcounter {refsection}{0}\relax }\@writefile{toc}{\contentsline {subsubsection}{\numberline {4.3.3}diffuser Anteil}{19}{subsubsection.4.3.3}\protected@file@percent }
\@writefile{toc}{\defcounter {refsection}{0}\relax }\@writefile{toc}{\contentsline {subsubsection}{\numberline {4.3.4}spekularer Anteil}{19}{subsubsection.4.3.4}\protected@file@percent }
\newlabel{spec}{{4.3.4}{19}{spekularer Anteil}{subsubsection.4.3.4}{}}
\@writefile{toc}{\defcounter {refsection}{0}\relax }\@writefile{toc}{\contentsline {subsubsection}{\numberline {4.3.5}Distanz zur Lichtquelle}{19}{subsubsection.4.3.5}\protected@file@percent }
\newlabel{formel_phong_daempf}{{31}{19}{Distanz zur Lichtquelle}{equation.4.31}{}}
\@writefile{toc}{\defcounter {refsection}{0}\relax }\@writefile{toc}{\contentsline {subsubsection}{\numberline {4.3.6}Anteile visuell}{20}{subsubsection.4.3.6}\protected@file@percent }
\newlabel{b-phong-2D-a}{{25a}{20}{ambienter Anteil\relax }{figure.caption.26}{}}
\newlabel{sub@b-phong-2D-a}{{a}{20}{ambienter Anteil\relax }{figure.caption.26}{}}
\newlabel{b-phong-2D-b}{{25b}{20}{diffuser Anteil\relax }{figure.caption.26}{}}
\newlabel{sub@b-phong-2D-b}{{b}{20}{diffuser Anteil\relax }{figure.caption.26}{}}
\newlabel{b-phong-2D-c}{{25c}{20}{spekularer Anteil\relax }{figure.caption.26}{}}
\newlabel{sub@b-phong-2D-c}{{c}{20}{spekularer Anteil\relax }{figure.caption.26}{}}
\newlabel{b-phong-2D-d}{{25d}{20}{Summe\relax }{figure.caption.26}{}}
\newlabel{sub@b-phong-2D-d}{{d}{20}{Summe\relax }{figure.caption.26}{}}
\@writefile{lof}{\defcounter {refsection}{0}\relax }\@writefile{lof}{\contentsline {figure}{\numberline {25}{\ignorespaces Anteile der Phong-Beleuchtung entlang eines 2D-Objektes\relax }}{20}{figure.caption.26}\protected@file@percent }
\newlabel{b-phong-2D}{{25}{20}{Anteile der Phong-Beleuchtung entlang eines 2D-Objektes\relax }{figure.caption.26}{}}
\@writefile{lof}{\defcounter {refsection}{0}\relax }\@writefile{lof}{\contentsline {figure}{\numberline {26}{\ignorespaces Phong-Beleuchtung im dreidimensionalen Raum \cite {wikiPhongImg}\relax }}{20}{figure.caption.27}\protected@file@percent }
\newlabel{b-phong-3D}{{26}{20}{Phong-Beleuchtung im dreidimensionalen Raum \cite {wikiPhongImg}\relax }{figure.caption.27}{}}
\@setckpt{f_function/function}{
\setcounter{page}{21}
\setcounter{equation}{33}
\setcounter{enumi}{0}
\setcounter{enumii}{0}
\setcounter{enumiii}{0}
\setcounter{enumiv}{0}
\setcounter{footnote}{0}
\setcounter{mpfootnote}{0}
\setcounter{part}{0}
\setcounter{section}{4}
\setcounter{subsection}{3}
\setcounter{subsubsection}{6}
\setcounter{paragraph}{0}
\setcounter{subparagraph}{0}
\setcounter{figure}{26}
\setcounter{table}{0}
\setcounter{parentequation}{0}
\setcounter{lstnumber}{1}
\setcounter{caption@flags}{2}
\setcounter{continuedfloat}{0}
\setcounter{subfigure}{0}
\setcounter{subtable}{0}
\setcounter{float@type}{16}
\setcounter{algorithm}{0}
\setcounter{ALG@line}{0}
\setcounter{ALG@rem}{0}
\setcounter{ALG@nested}{0}
\setcounter{ALG@Lnr}{2}
\setcounter{ALG@blocknr}{10}
\setcounter{ALG@storecount}{0}
\setcounter{ALG@tmpcounter}{0}
\setcounter{svg@param@lastpage}{0}
\setcounter{svg@param@currpage}{-1}
\setcounter{r@tfl@t}{0}
\setcounter{Item}{0}
\setcounter{Hfootnote}{0}
\setcounter{bookmark@seq@number}{27}
\setcounter{tabx@nest}{0}
\setcounter{listtotal}{0}
\setcounter{listcount}{0}
\setcounter{liststart}{0}
\setcounter{liststop}{0}
\setcounter{citecount}{0}
\setcounter{citetotal}{0}
\setcounter{multicitecount}{0}
\setcounter{multicitetotal}{0}
\setcounter{instcount}{41}
\setcounter{maxnames}{3}
\setcounter{minnames}{1}
\setcounter{maxitems}{3}
\setcounter{minitems}{1}
\setcounter{citecounter}{0}
\setcounter{maxcitecounter}{0}
\setcounter{savedcitecounter}{0}
\setcounter{uniquelist}{0}
\setcounter{uniquename}{0}
\setcounter{refsection}{0}
\setcounter{refsegment}{0}
\setcounter{maxextratitle}{0}
\setcounter{maxextratitleyear}{0}
\setcounter{maxextraname}{0}
\setcounter{maxextradate}{0}
\setcounter{maxextraalpha}{4}
\setcounter{abbrvpenalty}{50}
\setcounter{highnamepenalty}{50}
\setcounter{lownamepenalty}{25}
\setcounter{maxparens}{3}
\setcounter{parenlevel}{0}
\setcounter{mincomprange}{10}
\setcounter{maxcomprange}{100000}
\setcounter{mincompwidth}{1}
\setcounter{afterword}{0}
\setcounter{savedafterword}{0}
\setcounter{annotator}{0}
\setcounter{savedannotator}{0}
\setcounter{author}{0}
\setcounter{savedauthor}{0}
\setcounter{bookauthor}{0}
\setcounter{savedbookauthor}{0}
\setcounter{commentator}{0}
\setcounter{savedcommentator}{0}
\setcounter{editor}{0}
\setcounter{savededitor}{0}
\setcounter{editora}{0}
\setcounter{savededitora}{0}
\setcounter{editorb}{0}
\setcounter{savededitorb}{0}
\setcounter{editorc}{0}
\setcounter{savededitorc}{0}
\setcounter{foreword}{0}
\setcounter{savedforeword}{0}
\setcounter{holder}{0}
\setcounter{savedholder}{0}
\setcounter{introduction}{0}
\setcounter{savedintroduction}{0}
\setcounter{namea}{0}
\setcounter{savednamea}{0}
\setcounter{nameb}{0}
\setcounter{savednameb}{0}
\setcounter{namec}{0}
\setcounter{savednamec}{0}
\setcounter{translator}{0}
\setcounter{savedtranslator}{0}
\setcounter{shortauthor}{0}
\setcounter{savedshortauthor}{0}
\setcounter{shorteditor}{0}
\setcounter{savedshorteditor}{0}
\setcounter{labelname}{0}
\setcounter{savedlabelname}{0}
\setcounter{institution}{0}
\setcounter{savedinstitution}{0}
\setcounter{lista}{0}
\setcounter{savedlista}{0}
\setcounter{listb}{0}
\setcounter{savedlistb}{0}
\setcounter{listc}{0}
\setcounter{savedlistc}{0}
\setcounter{listd}{0}
\setcounter{savedlistd}{0}
\setcounter{liste}{0}
\setcounter{savedliste}{0}
\setcounter{listf}{0}
\setcounter{savedlistf}{0}
\setcounter{location}{0}
\setcounter{savedlocation}{0}
\setcounter{organization}{0}
\setcounter{savedorganization}{0}
\setcounter{origlocation}{0}
\setcounter{savedoriglocation}{0}
\setcounter{origpublisher}{0}
\setcounter{savedorigpublisher}{0}
\setcounter{publisher}{0}
\setcounter{savedpublisher}{0}
\setcounter{language}{0}
\setcounter{savedlanguage}{0}
\setcounter{origlanguage}{0}
\setcounter{savedoriglanguage}{0}
\setcounter{pageref}{0}
\setcounter{savedpageref}{0}
\setcounter{textcitecount}{0}
\setcounter{textcitetotal}{0}
\setcounter{textcitemaxnames}{0}
\setcounter{biburlbigbreakpenalty}{100}
\setcounter{biburlbreakpenalty}{200}
\setcounter{biburlnumpenalty}{0}
\setcounter{biburlucpenalty}{0}
\setcounter{biburllcpenalty}{0}
\setcounter{smartand}{1}
\setcounter{bbx:relatedcount}{0}
\setcounter{bbx:relatedtotal}{0}
\setcounter{lstlisting}{0}
\setcounter{section@level}{3}
}
