\relax 
\providecommand{\transparent@use}[1]{}
\providecommand\hyper@newdestlabel[2]{}
\@writefile{toc}{\defcounter {refsection}{0}\relax }\@writefile{toc}{\contentsline {section}{\numberline {1}Einleitung}{1}{section.1}\protected@file@percent }
\@writefile{toc}{\defcounter {refsection}{0}\relax }\@writefile{toc}{\contentsline {subsection}{\numberline {1.1}Aufgabenstellung}{1}{subsection.1.1}\protected@file@percent }
\@writefile{toc}{\defcounter {refsection}{0}\relax }\@writefile{toc}{\contentsline {subsubsection}{\numberline {1.1.1}Inspiration durch Ergebnisse eines Hauptseminars}{1}{subsubsection.1.1.1}\protected@file@percent }
\@writefile{lof}{\defcounter {refsection}{0}\relax }\@writefile{lof}{\contentsline {figure}{\numberline {1}{\ignorespaces Anwendung im Hauptseminar\relax }}{1}{figure.caption.2}\protected@file@percent }
\providecommand*\caption@xref[2]{\@setref\relax\@undefined{#1}}
\newlabel{b-adrian}{{1}{1}{Anwendung im Hauptseminar\relax }{figure.caption.2}{}}
\@writefile{toc}{\defcounter {refsection}{0}\relax }\@writefile{toc}{\contentsline {subsection}{\numberline {1.2}Motivation}{2}{subsection.1.2}\protected@file@percent }
\@writefile{toc}{\defcounter {refsection}{0}\relax }\@writefile{toc}{\contentsline {subsection}{\numberline {1.3}Struktur der Arbeit}{2}{subsection.1.3}\protected@file@percent }
\@writefile{toc}{\defcounter {refsection}{0}\relax }\@writefile{toc}{\contentsline {section}{\numberline {2}Bisherige Arbeiten}{3}{section.2}\protected@file@percent }
\@writefile{toc}{\defcounter {refsection}{0}\relax }\@writefile{toc}{\contentsline {subsection}{\numberline {2.1}Raytracing}{3}{subsection.2.1}\protected@file@percent }
\@writefile{lof}{\defcounter {refsection}{0}\relax }\@writefile{lof}{\contentsline {figure}{\numberline {2}{\ignorespaces Ergebnisse der Arbeit von Goldstein und Nagel \cite {firstRaytracer}\relax }}{3}{figure.caption.3}\protected@file@percent }
\newlabel{oldRT}{{2}{3}{Ergebnisse der Arbeit von Goldstein und Nagel \cite {firstRaytracer}\relax }{figure.caption.3}{}}
\@writefile{toc}{\defcounter {refsection}{0}\relax }\@writefile{toc}{\contentsline {subsection}{\numberline {2.2}Phong-Beleuchtung}{3}{subsection.2.2}\protected@file@percent }
\@writefile{toc}{\defcounter {refsection}{0}\relax }\@writefile{toc}{\contentsline {subsection}{\numberline {2.3}Computergraphik-Folien}{4}{subsection.2.3}\protected@file@percent }
\@writefile{lof}{\defcounter {refsection}{0}\relax }\@writefile{lof}{\contentsline {figure}{\numberline {3}{\ignorespaces Graphik aus einer Computergraphik Vorlesung zu Raytracing\relax }}{4}{figure.caption.4}\protected@file@percent }
\newlabel{b-Graphik-Folie}{{3}{4}{Graphik aus einer Computergraphik Vorlesung zu Raytracing\relax }{figure.caption.4}{}}
\@writefile{toc}{\defcounter {refsection}{0}\relax }\@writefile{toc}{\contentsline {subsection}{\numberline {2.4}2D-Raytracing mit Top-View}{4}{subsection.2.4}\protected@file@percent }
\@writefile{lof}{\defcounter {refsection}{0}\relax }\@writefile{lof}{\contentsline {figure}{\numberline {4}{\ignorespaces Raytracing in der Draufsicht \cite {taylorPetrick}\relax }}{4}{figure.caption.5}\protected@file@percent }
\newlabel{b-top-view-taylor}{{4}{4}{Raytracing in der Draufsicht \cite {taylorPetrick}\relax }{figure.caption.5}{}}
\@writefile{toc}{\defcounter {refsection}{0}\relax }\@writefile{toc}{\contentsline {subsection}{\numberline {2.5}3D-Raytracing Demo}{5}{subsection.2.5}\protected@file@percent }
\@writefile{lof}{\defcounter {refsection}{0}\relax }\@writefile{lof}{\contentsline {figure}{\numberline {5}{\ignorespaces Screenshot des Rayground-Editors\relax }}{5}{figure.caption.6}\protected@file@percent }
\newlabel{b-rayground-demo}{{5}{5}{Screenshot des Rayground-Editors\relax }{figure.caption.6}{}}
\@writefile{toc}{\defcounter {refsection}{0}\relax }\@writefile{toc}{\contentsline {section}{\numberline {3}Raytracing in der Lehre}{6}{section.3}\protected@file@percent }
\@writefile{lof}{\defcounter {refsection}{0}\relax }\@writefile{lof}{\contentsline {figure}{\numberline {6}{\ignorespaces Beispiel Video von NVIDIA \cite {example-edu-1}\relax }}{6}{figure.caption.7}\protected@file@percent }
\newlabel{b-example-edu-1}{{6}{6}{Beispiel Video von NVIDIA \cite {example-edu-1}\relax }{figure.caption.7}{}}
\@writefile{lof}{\defcounter {refsection}{0}\relax }\@writefile{lof}{\contentsline {figure}{\numberline {7}{\ignorespaces Ausschnitt des Artikels zum Thema Raytracing von Ionos \cite {example-edu-2}\relax }}{6}{figure.caption.8}\protected@file@percent }
\newlabel{b-example-edu-2}{{7}{6}{Ausschnitt des Artikels zum Thema Raytracing von Ionos \cite {example-edu-2}\relax }{figure.caption.8}{}}
\@writefile{lof}{\defcounter {refsection}{0}\relax }\@writefile{lof}{\contentsline {figure}{\numberline {8}{\ignorespaces Beispiel einer wissenschaftlichen Arbeit zu Raytracing \cite {example-edu-3}\relax }}{7}{figure.caption.9}\protected@file@percent }
\newlabel{b-example-edu-3}{{8}{7}{Beispiel einer wissenschaftlichen Arbeit zu Raytracing \cite {example-edu-3}\relax }{figure.caption.9}{}}
\@writefile{toc}{\defcounter {refsection}{0}\relax }\@writefile{toc}{\contentsline {subsection}{\numberline {3.1}Interaktive Lehre}{7}{subsection.3.1}\protected@file@percent }
\newlabel{interactive-learn}{{3.1}{7}{Interaktive Lehre}{subsection.3.1}{}}
\@writefile{lof}{\defcounter {refsection}{0}\relax }\@writefile{lof}{\contentsline {figure}{\numberline {9}{\ignorespaces Einfluss interaktiver Lernmöglichkeiten in der Mathematik \cite {gamesMotivation}\relax }}{9}{figure.caption.10}\protected@file@percent }
\newlabel{b-result-games-motivation}{{9}{9}{Einfluss interaktiver Lernmöglichkeiten in der Mathematik \cite {gamesMotivation}\relax }{figure.caption.10}{}}
\@setckpt{f_introduction/introduction}{
\setcounter{page}{10}
\setcounter{equation}{0}
\setcounter{enumi}{0}
\setcounter{enumii}{0}
\setcounter{enumiii}{0}
\setcounter{enumiv}{0}
\setcounter{footnote}{0}
\setcounter{mpfootnote}{0}
\setcounter{part}{0}
\setcounter{section}{3}
\setcounter{subsection}{1}
\setcounter{subsubsection}{0}
\setcounter{paragraph}{0}
\setcounter{subparagraph}{0}
\setcounter{figure}{9}
\setcounter{table}{0}
\setcounter{parentequation}{0}
\setcounter{lstnumber}{1}
\setcounter{caption@flags}{2}
\setcounter{continuedfloat}{0}
\setcounter{subfigure}{0}
\setcounter{subtable}{0}
\setcounter{float@type}{16}
\setcounter{algorithm}{0}
\setcounter{ALG@line}{0}
\setcounter{ALG@rem}{0}
\setcounter{ALG@nested}{0}
\setcounter{ALG@Lnr}{2}
\setcounter{ALG@blocknr}{10}
\setcounter{ALG@storecount}{0}
\setcounter{ALG@tmpcounter}{0}
\setcounter{svg@param@lastpage}{0}
\setcounter{svg@param@currpage}{-1}
\setcounter{r@tfl@t}{0}
\setcounter{Item}{0}
\setcounter{Hfootnote}{0}
\setcounter{bookmark@seq@number}{13}
\setcounter{tabx@nest}{0}
\setcounter{listtotal}{0}
\setcounter{listcount}{0}
\setcounter{liststart}{0}
\setcounter{liststop}{0}
\setcounter{citecount}{0}
\setcounter{citetotal}{0}
\setcounter{multicitecount}{0}
\setcounter{multicitetotal}{0}
\setcounter{instcount}{25}
\setcounter{maxnames}{3}
\setcounter{minnames}{1}
\setcounter{maxitems}{3}
\setcounter{minitems}{1}
\setcounter{citecounter}{0}
\setcounter{maxcitecounter}{0}
\setcounter{savedcitecounter}{0}
\setcounter{uniquelist}{0}
\setcounter{uniquename}{0}
\setcounter{refsection}{0}
\setcounter{refsegment}{0}
\setcounter{maxextratitle}{0}
\setcounter{maxextratitleyear}{0}
\setcounter{maxextraname}{0}
\setcounter{maxextradate}{0}
\setcounter{maxextraalpha}{4}
\setcounter{abbrvpenalty}{50}
\setcounter{highnamepenalty}{50}
\setcounter{lownamepenalty}{25}
\setcounter{maxparens}{3}
\setcounter{parenlevel}{0}
\setcounter{mincomprange}{10}
\setcounter{maxcomprange}{100000}
\setcounter{mincompwidth}{1}
\setcounter{afterword}{0}
\setcounter{savedafterword}{0}
\setcounter{annotator}{0}
\setcounter{savedannotator}{0}
\setcounter{author}{0}
\setcounter{savedauthor}{0}
\setcounter{bookauthor}{0}
\setcounter{savedbookauthor}{0}
\setcounter{commentator}{0}
\setcounter{savedcommentator}{0}
\setcounter{editor}{0}
\setcounter{savededitor}{0}
\setcounter{editora}{0}
\setcounter{savededitora}{0}
\setcounter{editorb}{0}
\setcounter{savededitorb}{0}
\setcounter{editorc}{0}
\setcounter{savededitorc}{0}
\setcounter{foreword}{0}
\setcounter{savedforeword}{0}
\setcounter{holder}{0}
\setcounter{savedholder}{0}
\setcounter{introduction}{0}
\setcounter{savedintroduction}{0}
\setcounter{namea}{0}
\setcounter{savednamea}{0}
\setcounter{nameb}{0}
\setcounter{savednameb}{0}
\setcounter{namec}{0}
\setcounter{savednamec}{0}
\setcounter{translator}{0}
\setcounter{savedtranslator}{0}
\setcounter{shortauthor}{0}
\setcounter{savedshortauthor}{0}
\setcounter{shorteditor}{0}
\setcounter{savedshorteditor}{0}
\setcounter{labelname}{0}
\setcounter{savedlabelname}{0}
\setcounter{institution}{0}
\setcounter{savedinstitution}{0}
\setcounter{lista}{0}
\setcounter{savedlista}{0}
\setcounter{listb}{0}
\setcounter{savedlistb}{0}
\setcounter{listc}{0}
\setcounter{savedlistc}{0}
\setcounter{listd}{0}
\setcounter{savedlistd}{0}
\setcounter{liste}{0}
\setcounter{savedliste}{0}
\setcounter{listf}{0}
\setcounter{savedlistf}{0}
\setcounter{location}{0}
\setcounter{savedlocation}{0}
\setcounter{organization}{0}
\setcounter{savedorganization}{0}
\setcounter{origlocation}{0}
\setcounter{savedoriglocation}{0}
\setcounter{origpublisher}{0}
\setcounter{savedorigpublisher}{0}
\setcounter{publisher}{0}
\setcounter{savedpublisher}{0}
\setcounter{language}{0}
\setcounter{savedlanguage}{0}
\setcounter{origlanguage}{0}
\setcounter{savedoriglanguage}{0}
\setcounter{pageref}{0}
\setcounter{savedpageref}{0}
\setcounter{textcitecount}{0}
\setcounter{textcitetotal}{0}
\setcounter{textcitemaxnames}{0}
\setcounter{biburlbigbreakpenalty}{100}
\setcounter{biburlbreakpenalty}{200}
\setcounter{biburlnumpenalty}{0}
\setcounter{biburlucpenalty}{0}
\setcounter{biburllcpenalty}{0}
\setcounter{smartand}{1}
\setcounter{bbx:relatedcount}{0}
\setcounter{bbx:relatedtotal}{0}
\setcounter{lstlisting}{0}
\setcounter{section@level}{2}
}
