\relax 
\providecommand{\transparent@use}[1]{}
\providecommand\hyper@newdestlabel[2]{}
\providecommand\babel@aux[2]{}
\@nameuse{bbl@beforestart}
\catcode `"\active 
\providecommand\HyperFirstAtBeginDocument{\AtBeginDocument}
\HyperFirstAtBeginDocument{\ifx\hyper@anchor\@undefined
\global\let\oldcontentsline\contentsline
\gdef\contentsline#1#2#3#4{\oldcontentsline{#1}{#2}{#3}}
\global\let\oldnewlabel\newlabel
\gdef\newlabel#1#2{\newlabelxx{#1}#2}
\gdef\newlabelxx#1#2#3#4#5#6{\oldnewlabel{#1}{{#2}{#3}}}
\AtEndDocument{\ifx\hyper@anchor\@undefined
\let\contentsline\oldcontentsline
\let\newlabel\oldnewlabel
\fi}
\fi}
\global\let\hyper@last\relax 
\gdef\HyperFirstAtBeginDocument#1{#1}
\providecommand\HyField@AuxAddToFields[1]{}
\providecommand\HyField@AuxAddToCoFields[2]{}
\@writefile{toc}{\boolfalse {citerequest}\boolfalse {citetracker}\boolfalse {pagetracker}\boolfalse {backtracker}\relax }
\@writefile{lof}{\boolfalse {citerequest}\boolfalse {citetracker}\boolfalse {pagetracker}\boolfalse {backtracker}\relax }
\@writefile{lot}{\boolfalse {citerequest}\boolfalse {citetracker}\boolfalse {pagetracker}\boolfalse {backtracker}\relax }
\bibstyle{biblatex}
\bibdata{Main-blx,Bib/quellen,Bib/shortlinks,Bib/usedTech}
\citation{biblatex-control}
\abx@aux@refcontext{nyt/global//global/global}
\babel@aux{ngerman}{}
\@input{f_introduction/introduction.aux}
\citation{firstRaytracer}
\abx@aux@cite{firstRaytracer}
\abx@aux@segm{0}{0}{firstRaytracer}
\citation{wikiRayTrace}
\abx@aux@cite{wikiRayTrace}
\abx@aux@segm{0}{0}{wikiRayTrace}
\citation{firstRaytracer}
\abx@aux@cite{firstRaytracer}
\abx@aux@segm{0}{0}{firstRaytracer}
\citation{firstRaytracer}
\abx@aux@cite{firstRaytracer}
\abx@aux@segm{0}{0}{firstRaytracer}
\citation{origPhong}
\abx@aux@cite{origPhong}
\abx@aux@segm{0}{0}{origPhong}
\citation{phongSource}
\abx@aux@cite{phongSource}
\abx@aux@segm{0}{0}{phongSource}
\citation{tuiFolien}
\abx@aux@cite{tuiFolien}
\abx@aux@segm{0}{0}{tuiFolien}
\citation{taylorPetrick}
\abx@aux@cite{taylorPetrick}
\abx@aux@segm{0}{0}{taylorPetrick}
\citation{taylorPetrick}
\abx@aux@cite{taylorPetrick}
\abx@aux@segm{0}{0}{taylorPetrick}
\citation{taylorPetrick}
\abx@aux@cite{taylorPetrick}
\abx@aux@segm{0}{0}{taylorPetrick}
\citation{rayground}
\abx@aux@cite{rayground}
\abx@aux@segm{0}{0}{rayground}
\citation{example-edu-1}
\abx@aux@cite{example-edu-1}
\abx@aux@segm{0}{0}{example-edu-1}
\citation{example-edu-1}
\abx@aux@cite{example-edu-1}
\abx@aux@segm{0}{0}{example-edu-1}
\citation{example-edu-2}
\abx@aux@cite{example-edu-2}
\abx@aux@segm{0}{0}{example-edu-2}
\citation{example-edu-2}
\abx@aux@cite{example-edu-2}
\abx@aux@segm{0}{0}{example-edu-2}
\citation{example-edu-3}
\abx@aux@cite{example-edu-3}
\abx@aux@segm{0}{0}{example-edu-3}
\citation{example-edu-3}
\abx@aux@cite{example-edu-3}
\abx@aux@segm{0}{0}{example-edu-3}
\citation{cgInteractive}
\abx@aux@cite{cgInteractive}
\abx@aux@segm{0}{0}{cgInteractive}
\citation{cgInteractive}
\abx@aux@cite{cgInteractive}
\abx@aux@segm{0}{0}{cgInteractive}
\citation{interactiveLearn}
\abx@aux@cite{interactiveLearn}
\abx@aux@segm{0}{0}{interactiveLearn}
\citation{interactiveLearn}
\abx@aux@cite{interactiveLearn}
\abx@aux@segm{0}{0}{interactiveLearn}
\citation{interview-1}
\abx@aux@cite{interview-1}
\abx@aux@segm{0}{0}{interview-1}
\citation{gamesMotivation}
\abx@aux@cite{gamesMotivation}
\abx@aux@segm{0}{0}{gamesMotivation}
\citation{gamesMotivation}
\abx@aux@cite{gamesMotivation}
\abx@aux@segm{0}{0}{gamesMotivation}
\citation{gamesMotivation}
\abx@aux@cite{gamesMotivation}
\abx@aux@segm{0}{0}{gamesMotivation}
\@input{f_function/function.aux}
\citation{wikiRayTrace}
\abx@aux@cite{wikiRayTrace}
\abx@aux@segm{0}{0}{wikiRayTrace}
\citation{nvidia}
\abx@aux@cite{nvidia}
\abx@aux@segm{0}{0}{nvidia}
\citation{rtrIntersect}
\abx@aux@cite{rtrIntersect}
\abx@aux@segm{0}{0}{rtrIntersect}
\citation{nvidia}
\abx@aux@cite{nvidia}
\abx@aux@segm{0}{0}{nvidia}
\citation{nvidia}
\abx@aux@cite{nvidia}
\abx@aux@segm{0}{0}{nvidia}
\citation{scratch-refr}
\abx@aux@cite{scratch-refr}
\abx@aux@segm{0}{0}{scratch-refr}
\citation{rtrIntersect}
\abx@aux@cite{rtrIntersect}
\abx@aux@segm{0}{0}{rtrIntersect}
\citation{bourkeIntersect}
\abx@aux@cite{bourkeIntersect}
\abx@aux@segm{0}{0}{bourkeIntersect}
\citation{scratch-hit}
\abx@aux@cite{scratch-hit}
\abx@aux@segm{0}{0}{scratch-hit}
\citation{2d-transform}
\abx@aux@cite{2d-transform}
\abx@aux@segm{0}{0}{2d-transform}
\citation{windingNumber}
\abx@aux@cite{windingNumber}
\abx@aux@segm{0}{0}{windingNumber}
\citation{scratch}
\abx@aux@cite{scratch}
\abx@aux@segm{0}{0}{scratch}
\citation{wikiPhongBel}
\abx@aux@cite{wikiPhongBel}
\abx@aux@segm{0}{0}{wikiPhongBel}
\citation{phongDist}
\abx@aux@cite{phongDist}
\abx@aux@segm{0}{0}{phongDist}
\citation{wikiPhongImg}
\abx@aux@cite{wikiPhongImg}
\abx@aux@segm{0}{0}{wikiPhongImg}
\citation{wikiPhongImg}
\abx@aux@cite{wikiPhongImg}
\abx@aux@segm{0}{0}{wikiPhongImg}
\@input{f_execution/execution.aux}
\citation{tech-1}
\abx@aux@cite{tech-1}
\abx@aux@segm{0}{0}{tech-1}
\citation{tech-2}
\abx@aux@cite{tech-2}
\abx@aux@segm{0}{0}{tech-2}
\citation{tech-3}
\abx@aux@cite{tech-3}
\abx@aux@segm{0}{0}{tech-3}
\citation{tech-3}
\abx@aux@cite{tech-3}
\abx@aux@segm{0}{0}{tech-3}
\citation{tech-3}
\abx@aux@cite{tech-3}
\abx@aux@segm{0}{0}{tech-3}
\citation{gitlab}
\abx@aux@cite{gitlab}
\abx@aux@segm{0}{0}{gitlab}
\citation{paint3d}
\abx@aux@cite{paint3d}
\abx@aux@segm{0}{0}{paint3d}
\citation{paint3d}
\abx@aux@cite{paint3d}
\abx@aux@segm{0}{0}{paint3d}
\@input{f_evaluation/evaluation.aux}
\citation{s-link-1}
\abx@aux@cite{s-link-1}
\abx@aux@segm{0}{0}{s-link-1}
\citation{s-link-2}
\abx@aux@cite{s-link-2}
\abx@aux@segm{0}{0}{s-link-2}
\citation{s-link-4}
\abx@aux@cite{s-link-4}
\abx@aux@segm{0}{0}{s-link-4}
\citation{s-link-7}
\abx@aux@cite{s-link-7}
\abx@aux@segm{0}{0}{s-link-7}
\citation{s-link-5}
\abx@aux@cite{s-link-5}
\abx@aux@segm{0}{0}{s-link-5}
\citation{s-link-6}
\abx@aux@cite{s-link-6}
\abx@aux@segm{0}{0}{s-link-6}
\citation{fpsFilm}
\abx@aux@cite{fpsFilm}
\abx@aux@segm{0}{0}{fpsFilm}
\citation{fpsGaming}
\abx@aux@cite{fpsGaming}
\abx@aux@segm{0}{0}{fpsGaming}
\citation{bro-use}
\abx@aux@cite{bro-use}
\abx@aux@segm{0}{0}{bro-use}
\citation{bro-use}
\abx@aux@cite{bro-use}
\abx@aux@segm{0}{0}{bro-use}
\citation{safari-problem}
\abx@aux@cite{safari-problem}
\abx@aux@segm{0}{0}{safari-problem}
\citation{js-res}
\abx@aux@cite{js-res}
\abx@aux@segm{0}{0}{js-res}
\citation{html-res}
\abx@aux@cite{html-res}
\abx@aux@segm{0}{0}{html-res}
\citation{css-res}
\abx@aux@cite{css-res}
\abx@aux@segm{0}{0}{css-res}
\@input{f_summary/summary.aux}
\citation{cook-torrence}
\abx@aux@cite{cook-torrence}
\abx@aux@segm{0}{0}{cook-torrence}
\citation{cook-torrence}
\abx@aux@cite{cook-torrence}
\abx@aux@segm{0}{0}{cook-torrence}
\@writefile{toc}{\defcounter {refsection}{0}\relax }\@writefile{toc}{\contentsline {section}{Literatur}{51}{section*.71}\protected@file@percent }
\@input{Attachments/attachments.aux}
\abx@aux@read@bbl@mdfivesum{9A7765D2828A0037B509F6E5687D8D2F}
\abx@aux@refcontextdefaultsdone
\abx@aux@defaultrefcontext{0}{s-link-4}{nyt/global//global/global}
\abx@aux@defaultrefcontext{0}{bourkeIntersect}{nyt/global//global/global}
\abx@aux@defaultrefcontext{0}{cook-torrence}{nyt/global//global/global}
\abx@aux@defaultrefcontext{0}{paint3d}{nyt/global//global/global}
\abx@aux@defaultrefcontext{0}{2d-transform}{nyt/global//global/global}
\abx@aux@defaultrefcontext{0}{gamesMotivation}{nyt/global//global/global}
\abx@aux@defaultrefcontext{0}{tuiFolien}{nyt/global//global/global}
\abx@aux@defaultrefcontext{0}{s-link-1}{nyt/global//global/global}
\abx@aux@defaultrefcontext{0}{tech-3}{nyt/global//global/global}
\abx@aux@defaultrefcontext{0}{interview-1}{nyt/global//global/global}
\abx@aux@defaultrefcontext{0}{phongSource}{nyt/global//global/global}
\abx@aux@defaultrefcontext{0}{gitlab}{nyt/global//global/global}
\abx@aux@defaultrefcontext{0}{firstRaytracer}{nyt/global//global/global}
\abx@aux@defaultrefcontext{0}{example-edu-3}{nyt/global//global/global}
\abx@aux@defaultrefcontext{0}{s-link-6}{nyt/global//global/global}
\abx@aux@defaultrefcontext{0}{example-edu-2}{nyt/global//global/global}
\abx@aux@defaultrefcontext{0}{tech-1}{nyt/global//global/global}
\abx@aux@defaultrefcontext{0}{tech-2}{nyt/global//global/global}
\abx@aux@defaultrefcontext{0}{safari-problem}{nyt/global//global/global}
\abx@aux@defaultrefcontext{0}{js-res}{nyt/global//global/global}
\abx@aux@defaultrefcontext{0}{example-edu-1}{nyt/global//global/global}
\abx@aux@defaultrefcontext{0}{nvidia}{nyt/global//global/global}
\abx@aux@defaultrefcontext{0}{taylorPetrick}{nyt/global//global/global}
\abx@aux@defaultrefcontext{0}{origPhong}{nyt/global//global/global}
\abx@aux@defaultrefcontext{0}{rayground}{nyt/global//global/global}
\abx@aux@defaultrefcontext{0}{rtrIntersect}{nyt/global//global/global}
\abx@aux@defaultrefcontext{0}{cgInteractive}{nyt/global//global/global}
\abx@aux@defaultrefcontext{0}{scratch}{nyt/global//global/global}
\abx@aux@defaultrefcontext{0}{scratch-hit}{nyt/global//global/global}
\abx@aux@defaultrefcontext{0}{scratch-refr}{nyt/global//global/global}
\abx@aux@defaultrefcontext{0}{phongDist}{nyt/global//global/global}
\abx@aux@defaultrefcontext{0}{s-link-7}{nyt/global//global/global}
\abx@aux@defaultrefcontext{0}{s-link-5}{nyt/global//global/global}
\abx@aux@defaultrefcontext{0}{s-link-2}{nyt/global//global/global}
\abx@aux@defaultrefcontext{0}{fpsGaming}{nyt/global//global/global}
\abx@aux@defaultrefcontext{0}{css-res}{nyt/global//global/global}
\abx@aux@defaultrefcontext{0}{html-res}{nyt/global//global/global}
\abx@aux@defaultrefcontext{0}{fpsFilm}{nyt/global//global/global}
\abx@aux@defaultrefcontext{0}{bro-use}{nyt/global//global/global}
\abx@aux@defaultrefcontext{0}{wikiPhongBel}{nyt/global//global/global}
\abx@aux@defaultrefcontext{0}{wikiPhongImg}{nyt/global//global/global}
\abx@aux@defaultrefcontext{0}{wikiRayTrace}{nyt/global//global/global}
\abx@aux@defaultrefcontext{0}{windingNumber}{nyt/global//global/global}
\abx@aux@defaultrefcontext{0}{interactiveLearn}{nyt/global//global/global}
\abx@aux@defaultlabelprefix{0}{s-link-4}{}
\abx@aux@defaultlabelprefix{0}{bourkeIntersect}{}
\abx@aux@defaultlabelprefix{0}{cook-torrence}{}
\abx@aux@defaultlabelprefix{0}{paint3d}{}
\abx@aux@defaultlabelprefix{0}{2d-transform}{}
\abx@aux@defaultlabelprefix{0}{gamesMotivation}{}
\abx@aux@defaultlabelprefix{0}{tuiFolien}{}
\abx@aux@defaultlabelprefix{0}{s-link-1}{}
\abx@aux@defaultlabelprefix{0}{tech-3}{}
\abx@aux@defaultlabelprefix{0}{interview-1}{}
\abx@aux@defaultlabelprefix{0}{phongSource}{}
\abx@aux@defaultlabelprefix{0}{gitlab}{}
\abx@aux@defaultlabelprefix{0}{firstRaytracer}{}
\abx@aux@defaultlabelprefix{0}{example-edu-3}{}
\abx@aux@defaultlabelprefix{0}{s-link-6}{}
\abx@aux@defaultlabelprefix{0}{example-edu-2}{}
\abx@aux@defaultlabelprefix{0}{tech-1}{}
\abx@aux@defaultlabelprefix{0}{tech-2}{}
\abx@aux@defaultlabelprefix{0}{safari-problem}{}
\abx@aux@defaultlabelprefix{0}{js-res}{}
\abx@aux@defaultlabelprefix{0}{example-edu-1}{}
\abx@aux@defaultlabelprefix{0}{nvidia}{}
\abx@aux@defaultlabelprefix{0}{taylorPetrick}{}
\abx@aux@defaultlabelprefix{0}{origPhong}{}
\abx@aux@defaultlabelprefix{0}{rayground}{}
\abx@aux@defaultlabelprefix{0}{rtrIntersect}{}
\abx@aux@defaultlabelprefix{0}{cgInteractive}{}
\abx@aux@defaultlabelprefix{0}{scratch}{}
\abx@aux@defaultlabelprefix{0}{scratch-hit}{}
\abx@aux@defaultlabelprefix{0}{scratch-refr}{}
\abx@aux@defaultlabelprefix{0}{phongDist}{}
\abx@aux@defaultlabelprefix{0}{s-link-7}{}
\abx@aux@defaultlabelprefix{0}{s-link-5}{}
\abx@aux@defaultlabelprefix{0}{s-link-2}{}
\abx@aux@defaultlabelprefix{0}{fpsGaming}{}
\abx@aux@defaultlabelprefix{0}{css-res}{}
\abx@aux@defaultlabelprefix{0}{html-res}{}
\abx@aux@defaultlabelprefix{0}{fpsFilm}{}
\abx@aux@defaultlabelprefix{0}{bro-use}{}
\abx@aux@defaultlabelprefix{0}{wikiPhongBel}{}
\abx@aux@defaultlabelprefix{0}{wikiPhongImg}{}
\abx@aux@defaultlabelprefix{0}{wikiRayTrace}{}
\abx@aux@defaultlabelprefix{0}{windingNumber}{}
\abx@aux@defaultlabelprefix{0}{interactiveLearn}{}
\gdef\svg@ink@ver@settings{{\m@ne }{inkscape}{1}}
\gdef \@abspage@last{68}
