\relax 
\providecommand{\transparent@use}[1]{}
\providecommand\hyper@newdestlabel[2]{}
\@writefile{toc}{\defcounter {refsection}{0}\relax }\@writefile{toc}{\contentsline {section}{\numberline {7}Auswertung}{39}{section.7}\protected@file@percent }
\@writefile{toc}{\defcounter {refsection}{0}\relax }\@writefile{toc}{\contentsline {subsection}{\numberline {7.1}Erstellung und Einbindung von Graphiken}{39}{subsection.7.1}\protected@file@percent }
\@writefile{lof}{\defcounter {refsection}{0}\relax }\@writefile{lof}{\contentsline {figure}{\numberline {47}{\ignorespaces Übersicht der Exportmöglichkeiten\relax }}{39}{figure.caption.56}\protected@file@percent }
\newlabel{b-export-menu}{{47}{39}{Übersicht der Exportmöglichkeiten\relax }{figure.caption.56}{}}
\@writefile{toc}{\defcounter {refsection}{0}\relax }\@writefile{toc}{\contentsline {subsubsection}{\numberline {7.1.1}Einbindung in PDF}{39}{subsubsection.7.1.1}\protected@file@percent }
\@writefile{lof}{\defcounter {refsection}{0}\relax }\@writefile{lof}{\contentsline {figure}{\numberline {48}{\ignorespaces Einbindung (SVG - links / PNG - rechts) in dieses PDF Dokument\relax }}{39}{figure.caption.57}\protected@file@percent }
\newlabel{b-export_png}{{48}{39}{Einbindung (SVG - links / PNG - rechts) in dieses PDF Dokument\relax }{figure.caption.57}{}}
\@writefile{toc}{\defcounter {refsection}{0}\relax }\@writefile{toc}{\contentsline {subsubsection}{\numberline {7.1.2}Einbindung in PowerPoint}{40}{subsubsection.7.1.2}\protected@file@percent }
\@writefile{lof}{\defcounter {refsection}{0}\relax }\@writefile{lof}{\contentsline {figure}{\numberline {49}{\ignorespaces Exportierte Graphiken, eingebunden in eine Powerpoint-Folie\relax }}{40}{figure.caption.58}\protected@file@percent }
\newlabel{b-pdf-example}{{49}{40}{Exportierte Graphiken, eingebunden in eine Powerpoint-Folie\relax }{figure.caption.58}{}}
\@writefile{toc}{\defcounter {refsection}{0}\relax }\@writefile{toc}{\contentsline {subsection}{\numberline {7.2}Einbindung in HTML}{41}{subsection.7.2}\protected@file@percent }
\@writefile{lof}{\defcounter {refsection}{0}\relax }\@writefile{lof}{\contentsline {figure}{\numberline {50}{\ignorespaces Eine Webseite mit PNG (links) und SVG (rechts)\relax }}{41}{figure.caption.59}\protected@file@percent }
\newlabel{b-html-example}{{50}{41}{Eine Webseite mit PNG (links) und SVG (rechts)\relax }{figure.caption.59}{}}
\@writefile{toc}{\defcounter {refsection}{0}\relax }\@writefile{toc}{\contentsline {subsection}{\numberline {7.3}Export und Import des Zustandes}{42}{subsection.7.3}\protected@file@percent }
\@writefile{lof}{\defcounter {refsection}{0}\relax }\@writefile{lof}{\contentsline {figure}{\numberline {51}{\ignorespaces Speichergröße in Bytes mit steigender Objektzahl\relax }}{42}{figure.caption.60}\protected@file@percent }
\newlabel{b-obj-b}{{51}{42}{Speichergröße in Bytes mit steigender Objektzahl\relax }{figure.caption.60}{}}
\@writefile{toc}{\defcounter {refsection}{0}\relax }\@writefile{toc}{\contentsline {subsection}{\numberline {7.4}Echtzeitmodifikationen}{43}{subsection.7.4}\protected@file@percent }
\@writefile{lof}{\defcounter {refsection}{0}\relax }\@writefile{lof}{\contentsline {figure}{\numberline {52}{\ignorespaces Eine Lichtquelle mit steigender Objektzahl\relax }}{43}{figure.caption.61}\protected@file@percent }
\newlabel{b-obj-fps}{{52}{43}{Eine Lichtquelle mit steigender Objektzahl\relax }{figure.caption.61}{}}
\@writefile{lof}{\defcounter {refsection}{0}\relax }\@writefile{lof}{\contentsline {figure}{\numberline {53}{\ignorespaces Zwei Objekte mit steigender Lichtquellenzahl\relax }}{44}{figure.caption.62}\protected@file@percent }
\newlabel{b-lamp-fps}{{53}{44}{Zwei Objekte mit steigender Lichtquellenzahl\relax }{figure.caption.62}{}}
\@writefile{toc}{\defcounter {refsection}{0}\relax }\@writefile{toc}{\contentsline {subsection}{\numberline {7.5}Qualität der erstellten Graphiken}{45}{subsection.7.5}\protected@file@percent }
\@writefile{lof}{\defcounter {refsection}{0}\relax }\@writefile{lof}{\contentsline {figure}{\numberline {54}{\ignorespaces Vergleich exportiertes SVG / HTML-Canvas (mehr Beispiele im Anhang \ref  {quality-comp})\relax }}{45}{figure.caption.63}\protected@file@percent }
\newlabel{b-face-2}{{54}{45}{Vergleich exportiertes SVG / HTML-Canvas (mehr Beispiele im Anhang \ref {quality-comp})\relax }{figure.caption.63}{}}
\newlabel{b-3d-qual}{{\caption@xref {b-3d-qual}{ on input line 156}}{45}{Qualität der erstellten Graphiken}{figure.caption.64}{}}
\@writefile{lof}{\defcounter {refsection}{0}\relax }\@writefile{lof}{\contentsline {figure}{\numberline {55}{\ignorespaces Verschiedene 3D-Größen (links 10\%, rechts 100\%)\relax }}{45}{figure.caption.65}\protected@file@percent }
\newlabel{b-3d-qual-B}{{55}{45}{Verschiedene 3D-Größen (links 10\%, rechts 100\%)\relax }{figure.caption.65}{}}
\@writefile{toc}{\defcounter {refsection}{0}\relax }\@writefile{toc}{\contentsline {subsection}{\numberline {7.6}Kompatibilität der Anwendung}{46}{subsection.7.6}\protected@file@percent }
\@writefile{lof}{\defcounter {refsection}{0}\relax }\@writefile{lof}{\contentsline {figure}{\numberline {56}{\ignorespaces Meistgenutzte Browser im Oktober 2021 \cite {bro-use}\relax }}{46}{figure.caption.66}\protected@file@percent }
\newlabel{b-browser}{{56}{46}{Meistgenutzte Browser im Oktober 2021 \cite {bro-use}\relax }{figure.caption.66}{}}
\@writefile{lof}{\defcounter {refsection}{0}\relax }\@writefile{lof}{\contentsline {figure}{\numberline {57}{\ignorespaces Browser auf Größe 400 x 600 Pixel (z.B. Smartphone im Hoch-format)\relax }}{47}{figure.caption.68}\protected@file@percent }
\newlabel{b-400x600}{{57}{47}{Browser auf Größe 400 x 600 Pixel (z.B. Smartphone im Hoch-format)\relax }{figure.caption.68}{}}
\@setckpt{f_evaluation/evaluation}{
\setcounter{page}{48}
\setcounter{equation}{33}
\setcounter{enumi}{0}
\setcounter{enumii}{0}
\setcounter{enumiii}{0}
\setcounter{enumiv}{0}
\setcounter{footnote}{0}
\setcounter{mpfootnote}{0}
\setcounter{part}{0}
\setcounter{section}{7}
\setcounter{subsection}{6}
\setcounter{subsubsection}{0}
\setcounter{paragraph}{0}
\setcounter{subparagraph}{0}
\setcounter{figure}{57}
\setcounter{table}{0}
\setcounter{parentequation}{0}
\setcounter{lstnumber}{1}
\setcounter{caption@flags}{2}
\setcounter{continuedfloat}{0}
\setcounter{subfigure}{0}
\setcounter{subtable}{0}
\setcounter{float@type}{16}
\setcounter{algorithm}{0}
\setcounter{ALG@line}{0}
\setcounter{ALG@rem}{0}
\setcounter{ALG@nested}{0}
\setcounter{ALG@Lnr}{2}
\setcounter{ALG@blocknr}{10}
\setcounter{ALG@storecount}{0}
\setcounter{ALG@tmpcounter}{0}
\setcounter{svg@param@lastpage}{0}
\setcounter{svg@param@currpage}{-1}
\setcounter{r@tfl@t}{0}
\setcounter{Item}{0}
\setcounter{Hfootnote}{0}
\setcounter{bookmark@seq@number}{57}
\setcounter{tabx@nest}{0}
\setcounter{listtotal}{0}
\setcounter{listcount}{0}
\setcounter{liststart}{0}
\setcounter{liststop}{0}
\setcounter{citecount}{0}
\setcounter{citetotal}{0}
\setcounter{multicitecount}{0}
\setcounter{multicitetotal}{0}
\setcounter{instcount}{63}
\setcounter{maxnames}{3}
\setcounter{minnames}{1}
\setcounter{maxitems}{3}
\setcounter{minitems}{1}
\setcounter{citecounter}{0}
\setcounter{maxcitecounter}{0}
\setcounter{savedcitecounter}{0}
\setcounter{uniquelist}{0}
\setcounter{uniquename}{0}
\setcounter{refsection}{0}
\setcounter{refsegment}{0}
\setcounter{maxextratitle}{0}
\setcounter{maxextratitleyear}{0}
\setcounter{maxextraname}{0}
\setcounter{maxextradate}{0}
\setcounter{maxextraalpha}{4}
\setcounter{abbrvpenalty}{50}
\setcounter{highnamepenalty}{50}
\setcounter{lownamepenalty}{25}
\setcounter{maxparens}{3}
\setcounter{parenlevel}{0}
\setcounter{mincomprange}{10}
\setcounter{maxcomprange}{100000}
\setcounter{mincompwidth}{1}
\setcounter{afterword}{0}
\setcounter{savedafterword}{0}
\setcounter{annotator}{0}
\setcounter{savedannotator}{0}
\setcounter{author}{0}
\setcounter{savedauthor}{0}
\setcounter{bookauthor}{0}
\setcounter{savedbookauthor}{0}
\setcounter{commentator}{0}
\setcounter{savedcommentator}{0}
\setcounter{editor}{0}
\setcounter{savededitor}{0}
\setcounter{editora}{0}
\setcounter{savededitora}{0}
\setcounter{editorb}{0}
\setcounter{savededitorb}{0}
\setcounter{editorc}{0}
\setcounter{savededitorc}{0}
\setcounter{foreword}{0}
\setcounter{savedforeword}{0}
\setcounter{holder}{0}
\setcounter{savedholder}{0}
\setcounter{introduction}{0}
\setcounter{savedintroduction}{0}
\setcounter{namea}{0}
\setcounter{savednamea}{0}
\setcounter{nameb}{0}
\setcounter{savednameb}{0}
\setcounter{namec}{0}
\setcounter{savednamec}{0}
\setcounter{translator}{0}
\setcounter{savedtranslator}{0}
\setcounter{shortauthor}{0}
\setcounter{savedshortauthor}{0}
\setcounter{shorteditor}{0}
\setcounter{savedshorteditor}{0}
\setcounter{labelname}{0}
\setcounter{savedlabelname}{0}
\setcounter{institution}{0}
\setcounter{savedinstitution}{0}
\setcounter{lista}{0}
\setcounter{savedlista}{0}
\setcounter{listb}{0}
\setcounter{savedlistb}{0}
\setcounter{listc}{0}
\setcounter{savedlistc}{0}
\setcounter{listd}{0}
\setcounter{savedlistd}{0}
\setcounter{liste}{0}
\setcounter{savedliste}{0}
\setcounter{listf}{0}
\setcounter{savedlistf}{0}
\setcounter{location}{0}
\setcounter{savedlocation}{0}
\setcounter{organization}{0}
\setcounter{savedorganization}{0}
\setcounter{origlocation}{0}
\setcounter{savedoriglocation}{0}
\setcounter{origpublisher}{0}
\setcounter{savedorigpublisher}{0}
\setcounter{publisher}{0}
\setcounter{savedpublisher}{0}
\setcounter{language}{0}
\setcounter{savedlanguage}{0}
\setcounter{origlanguage}{0}
\setcounter{savedoriglanguage}{0}
\setcounter{pageref}{0}
\setcounter{savedpageref}{0}
\setcounter{textcitecount}{0}
\setcounter{textcitetotal}{0}
\setcounter{textcitemaxnames}{0}
\setcounter{biburlbigbreakpenalty}{100}
\setcounter{biburlbreakpenalty}{200}
\setcounter{biburlnumpenalty}{0}
\setcounter{biburlucpenalty}{0}
\setcounter{biburllcpenalty}{0}
\setcounter{smartand}{1}
\setcounter{bbx:relatedcount}{0}
\setcounter{bbx:relatedtotal}{0}
\setcounter{lstlisting}{0}
\setcounter{section@level}{2}
}
