\relax 
\providecommand{\transparent@use}[1]{}
\providecommand\hyper@newdestlabel[2]{}
\@writefile{toc}{\defcounter {refsection}{0}\relax }\@writefile{toc}{\contentsline {section}{\numberline {5}Anwendungsmöglichkeiten der entwickelten App}{21}{section.5}\protected@file@percent }
\newlabel{anwendungsmoeglichkeiten}{{5}{21}{Anwendungsmöglichkeiten der entwickelten App}{section.5}{}}
\@writefile{toc}{\defcounter {refsection}{0}\relax }\@writefile{toc}{\contentsline {subsection}{\numberline {5.1}Folienerstellung}{21}{subsection.5.1}\protected@file@percent }
\@writefile{lof}{\defcounter {refsection}{0}\relax }\@writefile{lof}{\contentsline {figure}{\numberline {27}{\ignorespaces Menü zum genauen Anpassen der Kamera\relax }}{21}{figure.caption.28}\protected@file@percent }
\newlabel{b-demo-cam-menu}{{27}{21}{Menü zum genauen Anpassen der Kamera\relax }{figure.caption.28}{}}
\@writefile{toc}{\defcounter {refsection}{0}\relax }\@writefile{toc}{\contentsline {subsection}{\numberline {5.2}Live-Demonstrationen}{21}{subsection.5.2}\protected@file@percent }
\@writefile{lof}{\defcounter {refsection}{0}\relax }\@writefile{lof}{\contentsline {figure}{\numberline {28}{\ignorespaces Bewegung der Lichtquelle\relax }}{21}{figure.caption.29}\protected@file@percent }
\newlabel{b-demo-moving-light}{{28}{21}{Bewegung der Lichtquelle\relax }{figure.caption.29}{}}
\@writefile{toc}{\defcounter {refsection}{0}\relax }\@writefile{toc}{\contentsline {subsection}{\numberline {5.3}Eigenständiges Lernen}{22}{subsection.5.3}\protected@file@percent }
\@writefile{lof}{\defcounter {refsection}{0}\relax }\@writefile{lof}{\contentsline {figure}{\numberline {29}{\ignorespaces POI für die Berechnung der Phong-Beleuchtung\relax }}{22}{figure.caption.30}\protected@file@percent }
\newlabel{b-demo-poi-example}{{29}{22}{POI für die Berechnung der Phong-Beleuchtung\relax }{figure.caption.30}{}}
\@writefile{toc}{\defcounter {refsection}{0}\relax }\@writefile{toc}{\contentsline {subsection}{\numberline {5.4}Aufgaben bearbeiten}{22}{subsection.5.4}\protected@file@percent }
\@writefile{lof}{\defcounter {refsection}{0}\relax }\@writefile{lof}{\contentsline {figure}{\numberline {30}{\ignorespaces Cyan farbenes Objekt mit grüner und blauer Beleuchtung (ka=0; ks=0; kd=1)\relax }}{22}{figure.caption.31}\protected@file@percent }
\newlabel{b-demo-sides}{{30}{22}{Cyan farbenes Objekt mit grüner und blauer Beleuchtung (ka=0; ks=0; kd=1)\relax }{figure.caption.31}{}}
\@writefile{toc}{\defcounter {refsection}{0}\relax }\@writefile{toc}{\contentsline {section}{\numberline {6}Umsetzung}{23}{section.6}\protected@file@percent }
\@writefile{toc}{\defcounter {refsection}{0}\relax }\@writefile{toc}{\contentsline {subsection}{\numberline {6.1}Genutzte Technologien}{23}{subsection.6.1}\protected@file@percent }
\@writefile{lof}{\defcounter {refsection}{0}\relax }\@writefile{lof}{\contentsline {figure}{\numberline {31}{\ignorespaces Beispiele für Icons mit Thema \enquote {home} auf \cite {tech-3}\relax }}{23}{figure.caption.32}\protected@file@percent }
\newlabel{b-fa}{{31}{23}{Beispiele für Icons mit Thema \enquote {home} auf \cite {tech-3}\relax }{figure.caption.32}{}}
\@writefile{lof}{\defcounter {refsection}{0}\relax }\@writefile{lof}{\contentsline {figure}{\numberline {32}{\ignorespaces \url  {https://gitlab.com/fziola/raytracingtest}\relax }}{24}{figure.caption.33}\protected@file@percent }
\newlabel{b-gitlab}{{32}{24}{\url {https://gitlab.com/fziola/raytracingtest}\relax }{figure.caption.33}{}}
\@writefile{toc}{\defcounter {refsection}{0}\relax }\@writefile{toc}{\contentsline {subsection}{\numberline {6.2}Zustand der Anwendung (State)}{25}{subsection.6.2}\protected@file@percent }
\newlabel{state}{{6.2}{25}{Zustand der Anwendung (State)}{subsection.6.2}{}}
\@writefile{toc}{\defcounter {refsection}{0}\relax }\@writefile{toc}{\contentsline {subsection}{\numberline {6.3}2D-Graphik Berechnung}{25}{subsection.6.3}\protected@file@percent }
\@writefile{lof}{\defcounter {refsection}{0}\relax }\@writefile{lof}{\contentsline {figure}{\numberline {33}{\ignorespaces Elemente der 2D-Ansicht\relax }}{26}{figure.caption.34}\protected@file@percent }
\newlabel{b-ex-1}{{33}{26}{Elemente der 2D-Ansicht\relax }{figure.caption.34}{}}
\@writefile{toc}{\defcounter {refsection}{0}\relax }\@writefile{toc}{\contentsline {subsection}{\numberline {6.4}3D-Graphik Berechnung}{27}{subsection.6.4}\protected@file@percent }
\@writefile{lof}{\defcounter {refsection}{0}\relax }\@writefile{lof}{\contentsline {figure}{\numberline {34}{\ignorespaces Virtueller Bildschirm im 3D-Raum\relax }}{27}{figure.caption.35}\protected@file@percent }
\newlabel{b-ex-2}{{34}{27}{Virtueller Bildschirm im 3D-Raum\relax }{figure.caption.35}{}}
\@writefile{toc}{\defcounter {refsection}{0}\relax }\@writefile{toc}{\contentsline {subsection}{\numberline {6.5}Export / Import}{27}{subsection.6.5}\protected@file@percent }
\@writefile{lof}{\defcounter {refsection}{0}\relax }\@writefile{lof}{\contentsline {figure}{\numberline {35}{\ignorespaces Export und Import Menü\relax }}{27}{figure.caption.36}\protected@file@percent }
\newlabel{b-ex-im}{{35}{27}{Export und Import Menü\relax }{figure.caption.36}{}}
\@writefile{toc}{\defcounter {refsection}{0}\relax }\@writefile{toc}{\contentsline {subsubsection}{\numberline {6.5.1}Graphik-Export}{28}{subsubsection.6.5.1}\protected@file@percent }
\@writefile{toc}{\defcounter {refsection}{0}\relax }\@writefile{toc}{\contentsline {subsubsection}{\numberline {6.5.2}State-Ex-/Import}{28}{subsubsection.6.5.2}\protected@file@percent }
\@writefile{lof}{\defcounter {refsection}{0}\relax }\@writefile{lof}{\contentsline {figure}{\numberline {36}{\ignorespaces Beispiel Template 1\relax }}{29}{figure.caption.37}\protected@file@percent }
\newlabel{b-im-temp}{{36}{29}{Beispiel Template 1\relax }{figure.caption.37}{}}
\@writefile{toc}{\defcounter {refsection}{0}\relax }\@writefile{toc}{\contentsline {subsection}{\numberline {6.6}Points Of Interest}{30}{subsection.6.6}\protected@file@percent }
\@writefile{lof}{\defcounter {refsection}{0}\relax }\@writefile{lof}{\contentsline {figure}{\numberline {37}{\ignorespaces Beispiel von POI in der 2D-Ansicht\relax }}{30}{figure.caption.38}\protected@file@percent }
\newlabel{b-poi-0}{{37}{30}{Beispiel von POI in der 2D-Ansicht\relax }{figure.caption.38}{}}
\newlabel{b-poi-1}{{\caption@xref {b-poi-1}{ on input line 250}}{31}{Points Of Interest}{figure.caption.39}{}}
\newlabel{b-poi-2}{{\caption@xref {b-poi-2}{ on input line 259}}{31}{Points Of Interest}{figure.caption.40}{}}
\newlabel{b-poi-3}{{\caption@xref {b-poi-3}{ on input line 268}}{31}{Points Of Interest}{figure.caption.41}{}}
\newlabel{b-poi-4}{{\caption@xref {b-poi-4}{ on input line 277}}{31}{Points Of Interest}{figure.caption.42}{}}
\@writefile{toc}{\defcounter {refsection}{0}\relax }\@writefile{toc}{\contentsline {subsection}{\numberline {6.7}3D-Inspektion}{32}{subsection.6.7}\protected@file@percent }
\@writefile{lof}{\defcounter {refsection}{0}\relax }\@writefile{lof}{\contentsline {figure}{\numberline {38}{\ignorespaces Beispiel der Pixel-Inspektion im 3D-Canvas\relax }}{32}{figure.caption.43}\protected@file@percent }
\newlabel{b-3dpopup}{{38}{32}{Beispiel der Pixel-Inspektion im 3D-Canvas\relax }{figure.caption.43}{}}
\@writefile{toc}{\defcounter {refsection}{0}\relax }\@writefile{toc}{\contentsline {subsection}{\numberline {6.8}Bearbeitung im Canvas}{33}{subsection.6.8}\protected@file@percent }
\@writefile{lof}{\defcounter {refsection}{0}\relax }\@writefile{lof}{\contentsline {figure}{\numberline {39}{\ignorespaces Vergleich Rotations-Ankerpunkt mit paint3D, rechts \cite {paint3d}\relax }}{33}{figure.caption.44}\protected@file@percent }
\newlabel{b-compare-rotate}{{39}{33}{Vergleich Rotations-Ankerpunkt mit paint3D, rechts \cite {paint3d}\relax }{figure.caption.44}{}}
\@writefile{lof}{\defcounter {refsection}{0}\relax }\@writefile{lof}{\contentsline {figure}{\numberline {40}{\ignorespaces Menüs zum Anpassen von Kamera und Lichtquelle\relax }}{33}{figure.caption.45}\protected@file@percent }
\newlabel{b-menus}{{40}{33}{Menüs zum Anpassen von Kamera und Lichtquelle\relax }{figure.caption.45}{}}
\@writefile{lof}{\defcounter {refsection}{0}\relax }\@writefile{lof}{\contentsline {figure}{\numberline {41}{\ignorespaces ausgewähltes Objekt mit Menü\relax }}{34}{figure.caption.46}\protected@file@percent }
\newlabel{b-menu-obj}{{41}{34}{ausgewähltes Objekt mit Menü\relax }{figure.caption.46}{}}
\@writefile{toc}{\defcounter {refsection}{0}\relax }\@writefile{toc}{\contentsline {subsection}{\numberline {6.9}Personalisierungen}{34}{subsection.6.9}\protected@file@percent }
\@writefile{toc}{\defcounter {refsection}{0}\relax }\@writefile{toc}{\contentsline {subsubsection}{\numberline {6.9.1}Optionen}{34}{subsubsection.6.9.1}\protected@file@percent }
\newlabel{b-opt-nokr}{{\caption@xref {b-opt-nokr}{ on input line 335}}{34}{Optionen}{figure.caption.47}{}}
\newlabel{b-opt-nosr}{{\caption@xref {b-opt-nosr}{ on input line 345}}{35}{Optionen}{figure.caption.48}{}}
\newlabel{b-opt-norm}{{\caption@xref {b-opt-norm}{ on input line 352}}{35}{Optionen}{figure.caption.49}{}}
\@writefile{toc}{\defcounter {refsection}{0}\relax }\@writefile{toc}{\contentsline {subsubsection}{\numberline {6.9.2}Einstellungen}{35}{subsubsection.6.9.2}\protected@file@percent }
\newlabel{b-set-col}{{\caption@xref {b-set-col}{ on input line 365}}{35}{Einstellungen}{figure.caption.50}{}}
\@writefile{lof}{\defcounter {refsection}{0}\relax }\@writefile{lof}{\contentsline {figure}{\numberline {42}{\ignorespaces maximale Rekursionszahl: links 2, rechts 10\relax }}{36}{figure.caption.51}\protected@file@percent }
\newlabel{b-set-rec}{{42}{36}{maximale Rekursionszahl: links 2, rechts 10\relax }{figure.caption.51}{}}
\@writefile{lof}{\defcounter {refsection}{0}\relax }\@writefile{lof}{\contentsline {figure}{\numberline {43}{\ignorespaces Designs: Normal, Sonne, Kreuz\relax }}{36}{figure.caption.52}\protected@file@percent }
\newlabel{b-set-lampstyle}{{43}{36}{Designs: Normal, Sonne, Kreuz\relax }{figure.caption.52}{}}
\@writefile{lof}{\defcounter {refsection}{0}\relax }\@writefile{lof}{\contentsline {figure}{\numberline {44}{\ignorespaces Auswirkung des Brechungsindexes der Umgebung (0.5, 1, 3)\relax }}{36}{figure.caption.53}\protected@file@percent }
\newlabel{b-set-bgrafri}{{44}{36}{Auswirkung des Brechungsindexes der Umgebung (0.5, 1, 3)\relax }{figure.caption.53}{}}
\@writefile{toc}{\defcounter {refsection}{0}\relax }\@writefile{toc}{\contentsline {subsection}{\numberline {6.10}Tests}{37}{subsection.6.10}\protected@file@percent }
\@writefile{lof}{\defcounter {refsection}{0}\relax }\@writefile{lof}{\contentsline {figure}{\numberline {45}{\ignorespaces Beispiel für Fehler im 3D-Canvas (transparentes rotes Objekt vor blauem Hintergrund)\relax }}{37}{figure.caption.54}\protected@file@percent }
\newlabel{b-weird-3d}{{45}{37}{Beispiel für Fehler im 3D-Canvas (transparentes rotes Objekt vor blauem Hintergrund)\relax }{figure.caption.54}{}}
\@writefile{toc}{\defcounter {refsection}{0}\relax }\@writefile{toc}{\contentsline {subsection}{\numberline {6.11}Undo/Redo}{38}{subsection.6.11}\protected@file@percent }
\@writefile{lof}{\defcounter {refsection}{0}\relax }\@writefile{lof}{\contentsline {figure}{\numberline {46}{\ignorespaces Beispiel für gespeicherte Änderungen, wobei die Änderung der Hintergrundfarbe rückgängig gemacht wurde.\relax }}{38}{figure.caption.55}\protected@file@percent }
\newlabel{b-undoredo}{{46}{38}{Beispiel für gespeicherte Änderungen, wobei die Änderung der Hintergrundfarbe rückgängig gemacht wurde.\relax }{figure.caption.55}{}}
\@setckpt{f_execution/execution}{
\setcounter{page}{39}
\setcounter{equation}{33}
\setcounter{enumi}{0}
\setcounter{enumii}{0}
\setcounter{enumiii}{0}
\setcounter{enumiv}{0}
\setcounter{footnote}{0}
\setcounter{mpfootnote}{0}
\setcounter{part}{0}
\setcounter{section}{6}
\setcounter{subsection}{11}
\setcounter{subsubsection}{0}
\setcounter{paragraph}{0}
\setcounter{subparagraph}{0}
\setcounter{figure}{46}
\setcounter{table}{0}
\setcounter{parentequation}{0}
\setcounter{lstnumber}{1}
\setcounter{caption@flags}{2}
\setcounter{continuedfloat}{0}
\setcounter{subfigure}{0}
\setcounter{subtable}{0}
\setcounter{float@type}{16}
\setcounter{algorithm}{0}
\setcounter{ALG@line}{0}
\setcounter{ALG@rem}{0}
\setcounter{ALG@nested}{0}
\setcounter{ALG@Lnr}{2}
\setcounter{ALG@blocknr}{10}
\setcounter{ALG@storecount}{0}
\setcounter{ALG@tmpcounter}{0}
\setcounter{svg@param@lastpage}{0}
\setcounter{svg@param@currpage}{-1}
\setcounter{r@tfl@t}{0}
\setcounter{Item}{0}
\setcounter{Hfootnote}{0}
\setcounter{bookmark@seq@number}{48}
\setcounter{tabx@nest}{0}
\setcounter{listtotal}{0}
\setcounter{listcount}{0}
\setcounter{liststart}{0}
\setcounter{liststop}{0}
\setcounter{citecount}{0}
\setcounter{citetotal}{0}
\setcounter{multicitecount}{0}
\setcounter{multicitetotal}{0}
\setcounter{instcount}{49}
\setcounter{maxnames}{3}
\setcounter{minnames}{1}
\setcounter{maxitems}{3}
\setcounter{minitems}{1}
\setcounter{citecounter}{0}
\setcounter{maxcitecounter}{0}
\setcounter{savedcitecounter}{0}
\setcounter{uniquelist}{0}
\setcounter{uniquename}{0}
\setcounter{refsection}{0}
\setcounter{refsegment}{0}
\setcounter{maxextratitle}{0}
\setcounter{maxextratitleyear}{0}
\setcounter{maxextraname}{0}
\setcounter{maxextradate}{0}
\setcounter{maxextraalpha}{4}
\setcounter{abbrvpenalty}{50}
\setcounter{highnamepenalty}{50}
\setcounter{lownamepenalty}{25}
\setcounter{maxparens}{3}
\setcounter{parenlevel}{0}
\setcounter{mincomprange}{10}
\setcounter{maxcomprange}{100000}
\setcounter{mincompwidth}{1}
\setcounter{afterword}{0}
\setcounter{savedafterword}{0}
\setcounter{annotator}{0}
\setcounter{savedannotator}{0}
\setcounter{author}{0}
\setcounter{savedauthor}{0}
\setcounter{bookauthor}{0}
\setcounter{savedbookauthor}{0}
\setcounter{commentator}{0}
\setcounter{savedcommentator}{0}
\setcounter{editor}{0}
\setcounter{savededitor}{0}
\setcounter{editora}{0}
\setcounter{savededitora}{0}
\setcounter{editorb}{0}
\setcounter{savededitorb}{0}
\setcounter{editorc}{0}
\setcounter{savededitorc}{0}
\setcounter{foreword}{0}
\setcounter{savedforeword}{0}
\setcounter{holder}{0}
\setcounter{savedholder}{0}
\setcounter{introduction}{0}
\setcounter{savedintroduction}{0}
\setcounter{namea}{0}
\setcounter{savednamea}{0}
\setcounter{nameb}{0}
\setcounter{savednameb}{0}
\setcounter{namec}{0}
\setcounter{savednamec}{0}
\setcounter{translator}{0}
\setcounter{savedtranslator}{0}
\setcounter{shortauthor}{0}
\setcounter{savedshortauthor}{0}
\setcounter{shorteditor}{0}
\setcounter{savedshorteditor}{0}
\setcounter{labelname}{0}
\setcounter{savedlabelname}{0}
\setcounter{institution}{0}
\setcounter{savedinstitution}{0}
\setcounter{lista}{0}
\setcounter{savedlista}{0}
\setcounter{listb}{0}
\setcounter{savedlistb}{0}
\setcounter{listc}{0}
\setcounter{savedlistc}{0}
\setcounter{listd}{0}
\setcounter{savedlistd}{0}
\setcounter{liste}{0}
\setcounter{savedliste}{0}
\setcounter{listf}{0}
\setcounter{savedlistf}{0}
\setcounter{location}{0}
\setcounter{savedlocation}{0}
\setcounter{organization}{0}
\setcounter{savedorganization}{0}
\setcounter{origlocation}{0}
\setcounter{savedoriglocation}{0}
\setcounter{origpublisher}{0}
\setcounter{savedorigpublisher}{0}
\setcounter{publisher}{0}
\setcounter{savedpublisher}{0}
\setcounter{language}{0}
\setcounter{savedlanguage}{0}
\setcounter{origlanguage}{0}
\setcounter{savedoriglanguage}{0}
\setcounter{pageref}{0}
\setcounter{savedpageref}{0}
\setcounter{textcitecount}{0}
\setcounter{textcitetotal}{0}
\setcounter{textcitemaxnames}{0}
\setcounter{biburlbigbreakpenalty}{100}
\setcounter{biburlbreakpenalty}{200}
\setcounter{biburlnumpenalty}{0}
\setcounter{biburlucpenalty}{0}
\setcounter{biburllcpenalty}{0}
\setcounter{smartand}{1}
\setcounter{bbx:relatedcount}{0}
\setcounter{bbx:relatedtotal}{0}
\setcounter{lstlisting}{0}
\setcounter{section@level}{2}
}
