\relax 
\providecommand{\transparent@use}[1]{}
\providecommand\hyper@newdestlabel[2]{}
\@writefile{toc}{\defcounter {refsection}{0}\relax }\@writefile{toc}{\contentsline {section}{\numberline {A}FPS - gemessene Werte und Messszenarien}{55}{appendix.A}\protected@file@percent }
\newlabel{fps-measure}{{A}{55}{FPS - gemessene Werte und Messszenarien}{appendix.A}{}}
\@writefile{lof}{\defcounter {refsection}{0}\relax }\@writefile{lof}{\contentsline {figure}{\numberline {60}{\ignorespaces 52 Objekte im 2D-Raum\relax }}{55}{figure.caption.72}\protected@file@percent }
\newlabel{attach-52-modern-art}{{60}{55}{52 Objekte im 2D-Raum\relax }{figure.caption.72}{}}
\@writefile{lof}{\defcounter {refsection}{0}\relax }\@writefile{lof}{\contentsline {figure}{\numberline {61}{\ignorespaces 32 Lichtquellen\relax }}{56}{figure.caption.73}\protected@file@percent }
\newlabel{attach-32-modern-art}{{61}{56}{32 Lichtquellen\relax }{figure.caption.73}{}}
\@writefile{toc}{\defcounter {refsection}{0}\relax }\@writefile{toc}{\contentsline {section}{\numberline {B}Dateigröße JSON - gemessene Werte}{57}{appendix.B}\protected@file@percent }
\newlabel{tab-obj-b}{{B}{57}{Dateigröße JSON - gemessene Werte}{appendix.B}{}}
\@writefile{toc}{\defcounter {refsection}{0}\relax }\@writefile{toc}{\contentsline {section}{\numberline {C}Beispiel für einen App-State}{58}{appendix.C}\protected@file@percent }
\newlabel{state-json}{{C}{58}{Beispiel für einen App-State}{appendix.C}{}}
\@writefile{lof}{\defcounter {refsection}{0}\relax }\@writefile{lof}{\contentsline {figure}{\numberline {62}{\ignorespaces Aus dem JSON berechnetes Bild\relax }}{59}{figure.caption.74}\protected@file@percent }
\newlabel{b-json-img}{{62}{59}{Aus dem JSON berechnetes Bild\relax }{figure.caption.74}{}}
\@writefile{toc}{\defcounter {refsection}{0}\relax }\@writefile{toc}{\contentsline {section}{\numberline {D}2D-Grafikerstellung}{60}{appendix.D}\protected@file@percent }
\newlabel{2d-make-graphic}{{D}{60}{2D-Grafikerstellung}{appendix.D}{}}
\@writefile{lof}{\defcounter {refsection}{0}\relax }\@writefile{lof}{\contentsline {figure}{\numberline {63}{\ignorespaces Aus den Befehlen berechnetes Bild\relax }}{61}{figure.caption.75}\protected@file@percent }
\newlabel{b-svg-triangle-img}{{63}{61}{Aus den Befehlen berechnetes Bild\relax }{figure.caption.75}{}}
\@writefile{toc}{\defcounter {refsection}{0}\relax }\@writefile{toc}{\contentsline {section}{\numberline {E}Qualitätsvergleiche}{62}{appendix.E}\protected@file@percent }
\newlabel{quality-comp}{{E}{62}{Qualitätsvergleiche}{appendix.E}{}}
\@writefile{lof}{\defcounter {refsection}{0}\relax }\@writefile{lof}{\contentsline {figure}{\numberline {64}{\ignorespaces Qualitätsverlust im Vergleich SVG / HTML-Canvas\relax }}{63}{figure.caption.77}\protected@file@percent }
\newlabel{b-face-1}{{64}{63}{Qualitätsverlust im Vergleich SVG / HTML-Canvas\relax }{figure.caption.77}{}}
\@writefile{toc}{\defcounter {refsection}{0}\relax }\@writefile{toc}{\contentsline {section}{\numberline {F}Options}{64}{appendix.F}\protected@file@percent }
\newlabel{options}{{F}{64}{Options}{appendix.F}{}}
\@writefile{lof}{\defcounter {refsection}{0}\relax }\@writefile{lof}{\contentsline {figure}{\numberline {65}{\ignorespaces Optionen\relax }}{64}{figure.caption.78}\protected@file@percent }
\newlabel{b-opt}{{65}{64}{Optionen\relax }{figure.caption.78}{}}
\@writefile{lof}{\defcounter {refsection}{0}\relax }\@writefile{lof}{\contentsline {figure}{\numberline {66}{\ignorespaces Einstellungen\relax }}{64}{figure.caption.79}\protected@file@percent }
\newlabel{b-set}{{66}{64}{Einstellungen\relax }{figure.caption.79}{}}
\@writefile{toc}{\defcounter {refsection}{0}\relax }\@writefile{toc}{\contentsline {section}{\numberline {G}Ausgewählte Code-Sequenzen}{65}{appendix.G}\protected@file@percent }
\newlabel{code-png-ex}{{G}{65}{Ausgewählte Code-Sequenzen}{appendix.G}{}}
\newlabel{code-test}{{G}{65}{Ausgewählte Code-Sequenzen}{appendix.G}{}}
\@setckpt{Attachments/attachments}{
\setcounter{page}{66}
\setcounter{equation}{33}
\setcounter{enumi}{0}
\setcounter{enumii}{0}
\setcounter{enumiii}{0}
\setcounter{enumiv}{0}
\setcounter{footnote}{0}
\setcounter{mpfootnote}{0}
\setcounter{part}{0}
\setcounter{section}{7}
\setcounter{subsection}{0}
\setcounter{subsubsection}{0}
\setcounter{paragraph}{0}
\setcounter{subparagraph}{0}
\setcounter{figure}{66}
\setcounter{table}{0}
\setcounter{parentequation}{0}
\setcounter{lstnumber}{1}
\setcounter{caption@flags}{2}
\setcounter{continuedfloat}{0}
\setcounter{subfigure}{0}
\setcounter{subtable}{0}
\setcounter{float@type}{16}
\setcounter{algorithm}{0}
\setcounter{ALG@line}{0}
\setcounter{ALG@rem}{0}
\setcounter{ALG@nested}{0}
\setcounter{ALG@Lnr}{2}
\setcounter{ALG@blocknr}{10}
\setcounter{ALG@storecount}{0}
\setcounter{ALG@tmpcounter}{0}
\setcounter{svg@param@lastpage}{0}
\setcounter{svg@param@currpage}{-1}
\setcounter{r@tfl@t}{0}
\setcounter{Item}{0}
\setcounter{Hfootnote}{0}
\setcounter{bookmark@seq@number}{67}
\setcounter{tabx@nest}{0}
\setcounter{listtotal}{0}
\setcounter{listcount}{0}
\setcounter{liststart}{0}
\setcounter{liststop}{0}
\setcounter{citecount}{0}
\setcounter{citetotal}{0}
\setcounter{multicitecount}{0}
\setcounter{multicitetotal}{0}
\setcounter{instcount}{109}
\setcounter{maxnames}{3}
\setcounter{minnames}{1}
\setcounter{maxitems}{3}
\setcounter{minitems}{1}
\setcounter{citecounter}{0}
\setcounter{maxcitecounter}{0}
\setcounter{savedcitecounter}{0}
\setcounter{uniquelist}{0}
\setcounter{uniquename}{0}
\setcounter{refsection}{0}
\setcounter{refsegment}{0}
\setcounter{maxextratitle}{0}
\setcounter{maxextratitleyear}{0}
\setcounter{maxextraname}{0}
\setcounter{maxextradate}{0}
\setcounter{maxextraalpha}{4}
\setcounter{abbrvpenalty}{50}
\setcounter{highnamepenalty}{50}
\setcounter{lownamepenalty}{25}
\setcounter{maxparens}{3}
\setcounter{parenlevel}{0}
\setcounter{mincomprange}{10}
\setcounter{maxcomprange}{100000}
\setcounter{mincompwidth}{1}
\setcounter{afterword}{0}
\setcounter{savedafterword}{0}
\setcounter{annotator}{0}
\setcounter{savedannotator}{0}
\setcounter{author}{0}
\setcounter{savedauthor}{0}
\setcounter{bookauthor}{0}
\setcounter{savedbookauthor}{0}
\setcounter{commentator}{0}
\setcounter{savedcommentator}{0}
\setcounter{editor}{0}
\setcounter{savededitor}{0}
\setcounter{editora}{0}
\setcounter{savededitora}{0}
\setcounter{editorb}{0}
\setcounter{savededitorb}{0}
\setcounter{editorc}{0}
\setcounter{savededitorc}{0}
\setcounter{foreword}{0}
\setcounter{savedforeword}{0}
\setcounter{holder}{0}
\setcounter{savedholder}{0}
\setcounter{introduction}{0}
\setcounter{savedintroduction}{0}
\setcounter{namea}{0}
\setcounter{savednamea}{0}
\setcounter{nameb}{0}
\setcounter{savednameb}{0}
\setcounter{namec}{0}
\setcounter{savednamec}{0}
\setcounter{translator}{0}
\setcounter{savedtranslator}{0}
\setcounter{shortauthor}{0}
\setcounter{savedshortauthor}{0}
\setcounter{shorteditor}{0}
\setcounter{savedshorteditor}{0}
\setcounter{labelname}{0}
\setcounter{savedlabelname}{0}
\setcounter{institution}{0}
\setcounter{savedinstitution}{0}
\setcounter{lista}{0}
\setcounter{savedlista}{0}
\setcounter{listb}{0}
\setcounter{savedlistb}{0}
\setcounter{listc}{0}
\setcounter{savedlistc}{0}
\setcounter{listd}{0}
\setcounter{savedlistd}{0}
\setcounter{liste}{0}
\setcounter{savedliste}{0}
\setcounter{listf}{0}
\setcounter{savedlistf}{0}
\setcounter{location}{0}
\setcounter{savedlocation}{0}
\setcounter{organization}{0}
\setcounter{savedorganization}{0}
\setcounter{origlocation}{0}
\setcounter{savedoriglocation}{0}
\setcounter{origpublisher}{0}
\setcounter{savedorigpublisher}{0}
\setcounter{publisher}{0}
\setcounter{savedpublisher}{0}
\setcounter{language}{0}
\setcounter{savedlanguage}{0}
\setcounter{origlanguage}{0}
\setcounter{savedoriglanguage}{0}
\setcounter{pageref}{0}
\setcounter{savedpageref}{0}
\setcounter{textcitecount}{0}
\setcounter{textcitetotal}{0}
\setcounter{textcitemaxnames}{0}
\setcounter{biburlbigbreakpenalty}{100}
\setcounter{biburlbreakpenalty}{200}
\setcounter{biburlnumpenalty}{0}
\setcounter{biburlucpenalty}{0}
\setcounter{biburllcpenalty}{0}
\setcounter{smartand}{1}
\setcounter{bbx:relatedcount}{0}
\setcounter{bbx:relatedtotal}{0}
\setcounter{lstlisting}{0}
\setcounter{section@level}{1}
}
